ADA Homework 1
…
oos_pgphs <- read_tsv("https://raw.githubusercontent.com/difiore/ada-2021-datasets/main/darwin.txt")

## 
## -- Column specification --------------------------------------------------------
## cols(
##   `CHAPTER XV. RECAPITULATION AND CONCLUSION.` = col_character()
## )

oos_pgphs

## # A tibble: 56 x 1
##    `CHAPTER XV. RECAPITULATION AND CONCLUSION.`                                 
##    <chr>                                                                        
##  1 As this whole volume is one long argument, it may be convenient to the reade~
##  2 That many and serious objections may be advanced against the theory of desce~
##  3 It is, no doubt, extremely difficult even to conjecture by what gradations m~
##  4 With respect to the almost universal sterility of species when first crossed~
##  5 Although the fertility of varieties when intercrossed, and of their mongrel ~
##  6 A double and parallel series of facts seems to throw much light on the steri~
##  7 Turning to geographical distribution, the difficulties encountered on the th~
##  8 As according to the theory of natural selection an interminable number of in~
##  9 On this doctrine of the extermination of an infinitude of connecting links, ~
## 10 I can answer these questions and objections only on the supposition that the~
## # ... with 46 more rows
…
